<?xml version="1.0" encoding="utf-8"?>
<!-- Generator: Adobe Illustrator 21.1.0, SVG Export Plug-In . SVG Version: 6.00 Build 0)  -->
<svg version="1.1" id="Capa_1" xmlns="http://www.w3.org/2000/svg" xmlns:xlink="http://www.w3.org/1999/xlink" x="0px" y="0px"
	 viewBox="0 0 75.8 100" style="enable-background:new 0 0 75.8 100;" xml:space="preserve">
<style type="text/css">
	.st0{fill:#0071BC;}
	.st1{fill:#666666;}
</style>
<g>
	<g>
		<path class="st0" d="M18.3,37.1v-4.3c-4.3-2.9-7.1-7.9-7.1-13.2c0-8.9,7.1-16.1,16.1-16.1s16.1,7.1,16.1,16.1
			c0,3.2-1.1,6.4-2.9,8.9c0.4,0,0.7,0,1.1,0c1.1,0,2.1,0,2.9,0.4c1.4-2.9,2.5-6.1,2.5-9.3C46.9,8.9,38,0,27.3,0
			C16.6,0,7.6,8.9,7.6,19.6C7.6,27.1,11.9,33.9,18.3,37.1z"/>
		<path class="st0" d="M39.8,19.6c0-6.8-5.7-12.5-12.5-12.5s-12.5,5.7-12.5,12.5c0,3.6,1.4,6.4,3.6,8.6v-8.6c0-5,3.9-8.9,8.9-8.9
			s8.9,3.9,8.9,8.9v8.6C38.3,26.1,39.8,23.2,39.8,19.6z"/>
		<path class="st1" d="M70.1,39.3c-2.9,0-5.4,2.5-5.4,5.4v7.9v1.1h-3.6v-8.2v-4.3c0-2.9-2.5-5.4-5.4-5.4c-2.9,0-5.4,2.5-5.4,5.4v3.6
			V50h-3.6v-5.4v-7.1c0-2.9-2.5-5.4-5.4-5.4c-2.9,0-5.4,2.5-5.4,5.4v6.8v9.3h-3.6v-8.9v-25c0-2.9-2.5-5.4-5.4-5.4s-5.4,2.5-5.4,5.4
			v36.8C14.4,48.6,4.8,40,0.8,43.9c-3.9,3.9,6.4,14.6,20.4,38.2C27.6,92.9,35.5,100,49.1,100c14.6,0,26.8-12.1,26.8-26.8V61.4V44.6
			C75.5,41.8,73,39.3,70.1,39.3z"/>
	</g>
</g>
</svg>
